{
  "main": {
    "id": "9a964f72222a37a0",
    "type": "split",
    "children": [
      {
        "id": "7456c6df69a961a0",
        "type": "tabs",
        "children": [
          {
            "id": "92917664d812206a",
            "type": "leaf",
            "state": {
              "type": "markdown",
              "state": {
                "file": "Boilerplate.md",
                "mode": "source",
                "source": false
              }
            }
          }
        ]
      }
    ],
    "direction": "vertical"
  },
  "left": {
    "id": "38bd9c4e5619be9a",
    "type": "split",
    "children": [
      {
        "id": "045853f99f83b330",
        "type": "tabs",
        "children": [
          {
            "id": "fc9d75a77fbc3501",
            "type": "leaf",
            "state": {
              "type": "file-explorer",
              "state": {
                "sortOrder": "alphabetical"
              }
            }
          },
          {
            "id": "9df0365e7691a39e",
            "type": "leaf",
            "state": {
              "type": "search",
              "state": {
                "query": "",
                "matchingCase": false,
                "explainSearch": false,
                "collapseAll": false,
                "extraContext": false,
                "sortOrder": "alphabetical"
              }
            }
          },
          {
            "id": "f2305a8c7bdfde3f",
            "type": "leaf",
            "state": {
              "type": "bookmarks",
              "state": {}
            }
          }
        ]
      }
    ],
    "direction": "horizontal",
    "width": 200,
    "collapsed": true
  },
  "right": {
    "id": "dd94d2a951fb19de",
    "type": "split",
    "children": [
      {
        "id": "434bece1364138da",
        "type": "tabs",
        "children": [
          {
            "id": "977acabe532b7054",
            "type": "leaf",
            "state": {
              "type": "backlink",
              "state": {
                "file": "Boilerplate.md",
                "collapseAll": false,
                "extraContext": false,
                "sortOrder": "alphabetical",
                "showSearch": false,
                "searchQuery": "",
                "backlinkCollapsed": false,
                "unlinkedCollapsed": true
              }
            }
          },
          {
            "id": "b842caad33e1d0a8",
            "type": "leaf",
            "state": {
              "type": "outgoing-link",
              "state": {
                "file": "Boilerplate.md",
                "linksCollapsed": false,
                "unlinkedCollapsed": true
              }
            }
          },
          {
            "id": "02368062c318cdbe",
            "type": "leaf",
            "state": {
              "type": "tag",
              "state": {
                "sortOrder": "frequency",
                "useHierarchy": true
              }
            }
          },
          {
            "id": "4ca56f95183d12bc",
            "type": "leaf",
            "state": {
              "type": "outline",
              "state": {
                "file": "Boilerplate.md"
              }
            }
          }
        ]
      }
    ],
    "direction": "horizontal",
    "width": 300,
    "collapsed": true
  },
  "left-ribbon": {
    "hiddenItems": {
      "switcher:Open quick switcher": false,
      "graph:Open graph view": false,
      "canvas:Create new canvas": false,
      "daily-notes:Open today's daily note": false,
      "templates:Insert template": false,
      "command-palette:Open command palette": false
    }
  },
  "active": "92917664d812206a",
  "lastOpenFiles": [
    "index.html",
    "Boilerplate.md"
  ]
}